{
  "shell_port": 48295,
  "iopub_port": 44431,
  "stdin_port": 34355,
  "control_port": 41693,
  "hb_port": 36573,
  "ip": "127.0.0.1",
  "key": "7336c92d-41437e88720fe7262da740e4",
  "transport": "tcp",
  "signature_scheme": "hmac-sha256",
  "kernel_name": ""
}